%YAML 1.1
%TAG !u! tag:unity3d.com,2011:
--- !u!74 &7400000
AnimationClip:
  m_ObjectHideFlags: 0
  m_PrefabParentObject: {fileID: 0}
  m_PrefabInternal: {fileID: 0}
  m_Name: Target spawner
  serializedVersion: 6
  m_Legacy: 0
  m_Compressed: 0
  m_UseHighQualityCurve: 1
  m_RotationCurves: []
  m_CompressedRotationCurves: []
  m_PositionCurves: []
  m_ScaleCurves:
  - curve:
      serializedVersion: 2
      m_Curve:
      - time: 0
        value: {x: 0, y: 0, z: 0}
        inSlope: {x: 7.09090853, y: 7.09090853, z: 7.09090853}
        outSlope: {x: 7.09090853, y: 7.09090853, z: 7.09090853}
        tangentMode: 0
      - time: .183333337
        value: {x: 1.29999995, y: 1.29999995, z: 1.29999995}
        inSlope: {x: 5.0454545, y: 5.0454545, z: 5.0454545}
        outSlope: {x: 5.0454545, y: 5.0454545, z: 5.0454545}
        tangentMode: 0
      - time: .416666657
        value: {x: 2, y: 2, z: 2}
        inSlope: {x: 3.00000048, y: 3.00000048, z: 3.00000048}
        outSlope: {x: 3.00000048, y: 3.00000048, z: 3.00000048}
        tangentMode: 0
      m_PreInfinity: 2
      m_PostInfinity: 2
    path: 
  m_FloatCurves: []
  m_PPtrCurves: []
  m_SampleRate: 60
  m_WrapMode: 0
  m_Bounds:
    m_Center: {x: 0, y: 0, z: 0}
    m_Extent: {x: 0, y: 0, z: 0}
  m_ClipBindingConstant:
    genericBindings:
    - path: 0
      attribute: 3
      script: {fileID: 0}
      classID: 4
      customType: 0
      isPPtrCurve: 0
    pptrCurveMapping: []
  m_AnimationClipSettings:
    serializedVersion: 2
    m_StartTime: 0
    m_StopTime: .416666657
    m_OrientationOffsetY: 0
    m_Level: 0
    m_CycleOffset: 0
    m_LoopTime: 0
    m_LoopBlend: 0
    m_LoopBlendOrientation: 0
    m_LoopBlendPositionY: 0
    m_LoopBlendPositionXZ: 0
    m_KeepOriginalOrientation: 0
    m_KeepOriginalPositionY: 1
    m_KeepOriginalPositionXZ: 0
    m_HeightFromFeet: 0
    m_Mirror: 0
  m_EditorCurves:
  - curve:
      serializedVersion: 2
      m_Curve:
      - time: 0
        value: 0
        inSlope: 7.09090853
        outSlope: 7.09090853
        tangentMode: 10
      - time: .183333337
        value: 1.29999995
        inSlope: 5.0454545
        outSlope: 5.0454545
        tangentMode: 10
      - time: .416666657
        value: 2
        inSlope: 3.00000048
        outSlope: 3.00000048
        tangentMode: 10
      m_PreInfinity: 2
      m_PostInfinity: 2
    attribute: m_LocalScale.x
    path: 
    classID: 4
    script: {fileID: 0}
  - curve:
      serializedVersion: 2
      m_Curve:
      - time: 0
        value: 0
        inSlope: 7.09090853
        outSlope: 7.09090853
        tangentMode: 10
      - time: .183333337
        value: 1.29999995
        inSlope: 5.0454545
        outSlope: 5.0454545
        tangentMode: 10
      - time: .416666657
        value: 2
        inSlope: 3.00000048
        outSlope: 3.00000048
        tangentMode: 10
      m_PreInfinity: 2
      m_PostInfinity: 2
    attribute: m_LocalScale.y
    path: 
    classID: 4
    script: {fileID: 0}
  - curve:
      serializedVersion: 2
      m_Curve:
      - time: 0
        value: 0
        inSlope: 7.09090853
        outSlope: 7.09090853
        tangentMode: 10
      - time: .183333337
        value: 1.29999995
        inSlope: 5.0454545
        outSlope: 5.0454545
        tangentMode: 10
      - time: .416666657
        value: 2
        inSlope: 3.00000048
        outSlope: 3.00000048
        tangentMode: 10
      m_PreInfinity: 2
      m_PostInfinity: 2
    attribute: m_LocalScale.z
    path: 
    classID: 4
    script: {fileID: 0}
  m_EulerEditorCurves: []
  m_HasGenericRootTransform: 0
  m_HasMotionFloatCurves: 0
  m_GenerateMotionCurves: 0
  m_Events: []
